EDA Beer & Alien Sightings
…
## Warning in strptime(x, format, tz = "GMT"): unknown timezone 'zone/tz/
## 2017c.1.0/zoneinfo/America/Los_Angeles'

 # mutate(sightings_year = n())
#group_by(`Student ID`) %>%
 # mutate(`Dupe Check`= n())

fl.sightings

## # A tibble: 34 x 2
##     year sightings_year
##    <dbl>          <int>
##  1  1984              7
##  2  1985             16
##  3  1986             12
##  4  1987             12
##  5  1988             13
##  6  1989             16
##  7  1990              8
##  8  1991              8
##  9  1992             14
## 10  1993              9
## # ... with 24 more rows
…
